<svg width="497" height="207" viewBox="0 0 497 207" fill="none" xmlns="http://www.w3.org/2000/svg">
<path d="M247.964 107.558H239.035V72.7666H228.691L228.229 76.6381C227.034 86.4832 225.979 93.3941 225.064 97.3721C224.15 101.35 222.816 104.148 221.063 105.767C219.31 107.384 216.939 108.174 213.954 108.135C212.336 108.135 210.909 107.923 209.677 107.5V100.16C210.795 100.546 211.845 100.739 212.827 100.739C213.847 100.739 214.657 100.271 215.254 99.3375C215.851 98.4028 216.415 96.6688 216.945 94.1355C217.474 91.6023 218.178 87.452 219.055 81.6809C219.93 75.9124 220.677 70.4542 221.293 65.3114H247.964V107.558" fill="#1F5C4C"/>
<path d="M288.209 107.559H263.878V65.3124H288.209V72.6519H272.836V81.9277H287.14V89.2672H272.836V100.161H288.209V107.559Z" fill="#1F5C4C"/>
<path d="M320.657 72.1592C317.287 72.1592 314.676 73.4278 312.826 75.9597C310.978 78.493 310.053 82.0239 310.053 86.5501C310.053 95.9706 313.587 100.681 320.657 100.681C323.625 100.681 327.217 99.9395 331.436 98.4553V105.968C327.968 107.413 324.096 108.135 319.82 108.135C313.674 108.135 308.973 106.272 305.718 102.544C302.462 98.8168 300.834 93.4664 300.834 86.4924C300.834 82.1003 301.634 78.2523 303.234 74.9487C304.832 71.6451 307.129 69.1106 310.125 67.349C313.119 65.5861 316.631 64.7053 320.657 64.7053C324.76 64.7053 328.883 65.6978 333.025 67.6802L330.136 74.9632C328.556 74.2113 326.966 73.5566 325.368 72.9979C323.768 72.4392 322.198 72.1592 320.657 72.1592" fill="#1F5C4C"/>
<path d="M367.001 89.9902C364.17 80.8787 362.575 75.7254 362.22 74.5305C361.863 73.3368 361.608 72.3916 361.452 71.6988C360.817 74.165 358.997 80.2621 355.992 89.9902H367.001ZM372.202 107.559L369.14 97.5032H353.738L350.675 107.559H341.023L355.934 65.1388H366.886L381.854 107.559H372.202Z" fill="#461F16"/>
<path d="M401.153 84.0652H404.043C406.875 84.0652 408.965 83.5933 410.312 82.6507C411.661 81.7068 412.336 80.2226 412.336 78.1994C412.336 76.1973 411.647 74.7723 410.269 73.9244C408.891 73.0765 406.759 72.6519 403.87 72.6519H401.153V84.0652ZM401.153 91.3482V107.559H392.196V65.3124H404.506C410.245 65.3124 414.493 66.3575 417.248 68.4477C420.004 70.5379 421.38 73.7113 421.38 77.9694C421.38 80.454 420.696 82.6639 419.328 84.6003C417.961 86.5367 416.024 88.0538 413.52 89.1515C419.878 98.6496 424.02 104.785 425.947 107.559H416.006L405.92 91.3482H401.153" fill="#461F16"/>
<path d="M452.585 107.559H443.627V72.7675H432.155V65.3124H464.056V72.7675H452.585V107.559" fill="#461F16"/>
<path d="M217.833 130.692L209.818 120.794H212.465L220.399 130.664V120.794H222.685V130.664L230.631 120.794H233.28L225.25 130.664L233.531 141.174H230.798L222.685 130.845V141.174H220.399V130.845L212.3 141.174H209.525L217.833 130.692Z" fill="#461F16"/>
<path d="M239.084 125.896V135.585L238.987 138.122L238.945 138.917L247.211 125.896H250.097V141.174H247.936V131.835L247.979 129.994L248.047 128.182L239.796 141.174H236.91V125.896H239.084" fill="#461F16"/>
<path d="M267.25 141.175H264.909V127.876H260.322C260.071 131.185 259.723 133.81 259.276 135.752C258.831 137.695 258.252 139.116 257.54 140.018C256.829 140.92 255.926 141.371 254.83 141.371C254.328 141.371 253.928 141.315 253.631 141.204V139.488C253.835 139.545 254.067 139.572 254.328 139.572C255.396 139.572 256.247 138.443 256.879 136.185C257.51 133.927 257.989 130.497 258.313 125.896H267.25V141.175" fill="#461F16"/>
<path d="M274.561 133.521C274.561 135.473 274.951 136.961 275.732 137.983C276.513 139.005 277.661 139.517 279.175 139.517C280.69 139.517 281.84 139.007 282.626 137.989C283.411 136.972 283.804 135.484 283.804 133.521C283.804 131.579 283.411 130.104 282.626 129.096C281.84 128.088 280.682 127.583 279.148 127.583C277.633 127.583 276.49 128.081 275.718 129.075C274.946 130.069 274.561 131.552 274.561 133.521V133.521ZM286.202 133.521C286.202 136.012 285.575 137.956 284.319 139.355C283.065 140.755 281.331 141.455 279.12 141.455C277.754 141.455 276.541 141.134 275.481 140.492C274.422 139.851 273.604 138.931 273.028 137.733C272.451 136.533 272.165 135.13 272.165 133.521C272.165 131.031 272.786 129.091 274.031 127.701C275.276 126.313 277.006 125.618 279.217 125.618C281.355 125.618 283.053 126.329 284.313 127.751C285.572 129.172 286.202 131.095 286.202 133.521Z" fill="#461F16"/>
<path d="M297.653 123.875C295.934 123.875 294.678 123.543 293.888 122.878C293.098 122.214 292.658 121.12 292.564 119.595H294.739C294.823 120.563 295.075 121.236 295.5 121.617C295.922 121.997 296.658 122.187 297.709 122.187C298.666 122.187 299.374 121.984 299.834 121.575C300.294 121.166 300.576 120.506 300.678 119.595H302.867C302.755 121.063 302.286 122.144 301.459 122.837C300.631 123.528 299.362 123.875 297.653 123.875V123.875ZM293.289 125.896V135.585L293.192 138.122L293.15 138.917L301.417 125.896H304.303V141.174H302.141V131.835L302.183 129.994L302.253 128.182L294 141.174H291.115V125.896H293.289" fill="#461F16"/>
<path d="M327.246 125.896H329.783L323.189 133.271L330.328 141.174H327.623L320.652 133.438V141.174H318.338V125.896H320.652V133.326L327.246 125.896" fill="#461F16"/>
<path d="M335.561 133.521C335.561 135.473 335.952 136.961 336.732 137.983C337.513 139.005 338.661 139.517 340.175 139.517C341.69 139.517 342.84 139.007 343.625 137.989C344.411 136.972 344.803 135.484 344.803 133.521C344.803 131.579 344.411 130.104 343.625 129.096C342.84 128.088 341.681 127.583 340.148 127.583C338.632 127.583 337.49 128.081 336.718 129.075C335.946 130.069 335.561 131.552 335.561 133.521V133.521ZM347.202 133.521C347.202 136.012 346.575 137.956 345.32 139.355C344.064 140.755 342.331 141.455 340.119 141.455C338.753 141.455 337.541 141.134 336.481 140.492C335.422 139.851 334.604 138.931 334.028 137.733C333.451 136.533 333.163 135.13 333.163 133.521C333.163 131.031 333.786 129.091 335.031 127.701C336.276 126.313 338.006 125.618 340.218 125.618C342.355 125.618 344.054 126.329 345.313 127.751C346.571 129.172 347.202 131.095 347.202 133.521Z" fill="#461F16"/>
<path d="M360.047 138.943L360.48 137.649L361.078 136.004L365.219 125.924H368.161V141.174H366.11V128.559L365.833 129.367L365.024 131.5L361.078 141.174H359.141L355.195 131.472C354.703 130.228 354.364 129.256 354.177 128.559V141.174H352.115V125.924H354.945L358.945 135.612C359.345 136.635 359.712 137.744 360.047 138.943" fill="#461F16"/>
<path d="M376.265 141.174H373.952V125.896H386.777V141.174H384.434V127.903H376.265V141.174Z" fill="#461F16"/>
<path d="M403.93 141.175H401.588V127.876H397.001C396.75 131.185 396.402 133.81 395.956 135.752C395.51 137.695 394.931 139.116 394.221 140.018C393.51 140.92 392.605 141.371 391.509 141.371C391.007 141.371 390.607 141.315 390.31 141.204V139.488C390.514 139.545 390.746 139.572 391.007 139.572C392.075 139.572 392.926 138.443 393.558 136.185C394.189 133.927 394.669 130.497 394.994 125.896H403.93V141.175" fill="#461F16"/>
<path d="M415.52 127.555C414.294 127.555 413.316 127.955 412.586 128.754C411.856 129.553 411.426 130.659 411.296 132.071H419.285C419.285 130.613 418.959 129.494 418.31 128.72C417.658 127.943 416.728 127.555 415.52 127.555ZM416.147 141.455C413.89 141.455 412.107 140.767 410.802 139.391C409.495 138.016 408.843 136.105 408.843 133.66C408.843 131.198 409.449 129.242 410.663 127.792C411.875 126.343 413.504 125.618 415.548 125.618C417.463 125.618 418.978 126.247 420.092 127.507C421.208 128.766 421.766 130.426 421.766 132.49V133.953H411.241C411.287 135.748 411.741 137.108 412.6 138.039C413.46 138.969 414.67 139.433 416.231 139.433C417.876 139.433 419.502 139.09 421.111 138.401V140.463C420.293 140.818 419.519 141.071 418.79 141.223C418.06 141.377 417.179 141.455 416.147 141.455" fill="#461F16"/>
<path d="M435.476 125.896H438.013L431.419 133.271L438.556 141.174H435.852L428.882 133.438V141.174H426.567V125.896H428.882V133.326L435.476 125.896Z" fill="#461F16"/>
<path d="M448.348 141.455C446.136 141.455 444.424 140.774 443.211 139.41C441.999 138.051 441.393 136.124 441.393 133.634C441.393 131.077 442.008 129.103 443.238 127.709C444.47 126.314 446.224 125.618 448.502 125.618C449.235 125.618 449.97 125.696 450.704 125.854C451.439 126.013 452.015 126.199 452.433 126.413L451.723 128.378C451.21 128.173 450.653 128.004 450.049 127.869C449.445 127.734 448.909 127.667 448.445 127.667C445.342 127.667 443.789 129.647 443.789 133.605C443.789 135.484 444.168 136.923 444.926 137.927C445.683 138.931 446.805 139.433 448.293 139.433C449.565 139.433 450.871 139.159 452.21 138.61V140.659C451.188 141.189 449.901 141.455 448.348 141.455" fill="#461F16"/>
<path d="M139.208 123.42C136.694 124.291 136.791 132.026 138.337 133.958C139.885 135.892 142.205 135.602 142.689 132.508C143.173 129.415 141.858 122.503 139.208 123.42" fill="#461F16"/>
<path d="M145.694 134.052C145.407 137.53 143.733 139.412 142.166 140.972C140.616 142.515 138.531 140.689 136.938 138.108C135.307 135.479 134.045 130.235 135.271 124.317C136.486 118.552 137.354 114.324 138.998 114.154C141.796 113.863 141.488 117.406 143.41 122.274C145.311 127.074 145.974 130.623 145.694 134.052V134.052ZM144.638 117.884C141.388 110.249 143.026 104.887 138.789 104.887C136.677 104.887 135.539 111.386 133.264 120.811C130.99 130.234 133.102 138.033 135.539 142.257C137.975 146.481 141.226 149.731 143.501 146.807C145.775 143.882 148.375 140.957 148.7 135.596C149.025 130.234 147.888 125.521 144.638 117.884" fill="#461F16"/>
<path d="M158.544 135.881C159.145 130.797 156.689 127.959 153.764 124.223C150.839 120.485 149.214 116.586 148.077 108.95C146.94 101.313 145.803 90.7516 144.666 81.0025C143.529 71.2546 142.066 66.2183 140.928 58.7435C139.954 52.3439 140.052 41.2067 140.102 38.1278C138.648 37.3299 137.159 36.5871 135.648 35.8851C135.566 40.5204 135.386 49.0246 135.052 56.4692C134.564 67.3542 130.178 88.1526 129.853 101.15C129.528 114.149 128.877 114.474 125.466 123.898C122.055 133.321 130.341 147.296 132.615 156.393C133.945 161.718 134.496 167.14 134.725 170.732C135.723 170.285 136.707 169.82 137.68 169.331C137.276 162.587 137.558 157.56 134.538 150.219C130.38 140.113 127.74 135.922 128.065 128.61C128.203 125.509 131.641 118.373 132.452 111.387L134.078 99.3636C134.078 99.3636 134.274 98.333 134.38 97.3247C134.877 94.631 135.34 92.7945 136.104 91.4589C136.104 91.4589 137.433 88.8902 139.108 88.8218C140.478 88.7653 141.96 90.1903 142.762 95.153C143.284 99.4176 143.664 102.613 143.664 102.613C144.638 112.686 147.237 121.461 151.462 126.497C155.688 131.533 154.949 135.636 153.121 140.023C152.104 142.466 148.218 147.564 147.166 149.704C146.115 151.844 145.919 152.654 143.677 157.998C142.891 159.872 141.795 163.691 140.806 167.667C142.225 166.867 143.614 166.024 144.973 165.134C146.78 159.11 149.625 151.226 152.653 147.945C156.554 143.72 157.874 141.547 158.544 135.881" fill="#461F16"/>
<path d="M164.648 135.78C163.967 130.7 162.37 127.932 159.874 124.098C157.357 120.232 155.932 116.152 154.897 108.934C153.814 101.212 152.718 90.9793 151.627 81.4984C150.551 72.1752 149.194 66.8392 148.155 59.6272C147.392 54.3385 147.19 47.0057 147.14 42.5413C145.834 41.6211 144.507 40.7284 143.141 39.891C143.107 44.2844 143.153 53.2552 143.989 58.7424C145.126 66.2173 146.588 71.2536 147.725 81.0014C148.863 90.7506 150 101.312 151.137 108.949C152.275 116.585 153.9 120.484 156.825 124.222C159.748 127.958 161.884 131.423 161.955 136.428C161.99 138.825 160.98 143.353 157.081 147.578C154.534 150.338 151.536 156.509 149.351 162.044C151.772 160.197 154.076 158.204 156.25 156.079C157.761 152.784 159.384 149.716 160.831 147.795C163.846 143.796 165.335 140.898 164.648 135.78" fill="#461F16"/>
<path d="M165.973 123.852C164.279 119.716 163.227 115.287 162.419 108.906C161.42 101.017 160.428 91.4373 159.427 82.4901C158.478 74.0188 157.354 68.0806 156.488 61.3985C155.958 57.3114 155.614 52.9363 155.394 49.3041C154.044 48.025 152.65 46.7893 151.207 45.614C151.35 49.8353 151.658 55.6629 152.32 60.5138C153.271 67.4602 154.513 73.0985 155.526 81.9944C156.572 91.2085 157.611 101.117 158.658 108.92C159.572 115.721 160.816 119.975 162.923 123.975C164.991 127.901 166.137 131.253 166.948 135.641C167.694 139.678 166.875 142.463 165.439 145.194C166.901 143.082 168.263 140.896 169.504 138.63C169.496 137.659 169.429 136.634 169.247 135.5C168.585 131.359 167.617 127.866 165.973 123.852" fill="#461F16"/>
<path d="M169.941 108.878C169.072 100.815 168.138 91.8945 167.229 83.4823C166.404 75.8629 165.546 69.3187 164.822 63.1677C164.681 61.9411 164.549 60.7449 164.426 59.5775C162.969 57.5767 161.418 55.6482 159.773 53.8038C160.006 56.4566 160.295 59.3606 160.654 62.283C161.442 68.6996 162.441 74.94 163.328 82.9854C164.282 91.6658 165.237 100.917 166.181 108.892C166.887 114.854 167.748 119.454 169.023 123.728C170.186 127.626 170.936 131.109 171.459 134.788C172.103 133.428 172.697 132.041 173.26 130.639C172.935 128.396 172.55 126.076 172.073 123.604C171.22 119.192 170.558 114.419 169.941 108.878" fill="#461F16"/>
<path d="M174.506 78.9063C173.11 74.8625 171.382 70.9753 169.338 67.2825C171.189 84.3461 173.676 107.829 175.266 125.033C176.541 120.913 177.447 116.634 177.987 112.242C176.871 101.138 175.622 89.2891 174.506 78.9063Z" fill="#461F16"/>
<path d="M122.458 124.279C124.418 118.102 125.384 115.466 125.835 111.12C126.086 108.683 126.203 105.617 126.301 101.176C126.579 87.8447 130.481 66.9175 131.008 55.9182C131.071 54.5904 131.132 53.2587 131.19 51.952C131.513 44.9675 131.868 38.0119 132.059 34.3363C130.887 33.8656 129.703 33.4264 128.504 33.015C128.196 36.4882 127.588 43.7896 127.17 51.3552C127.103 52.6474 127.034 53.9948 126.963 55.3673C126.398 66.481 122.981 87.5371 122.747 101.202C122.666 105.596 122.583 108.751 122.37 111.263C122.014 115.474 121.142 118.48 119.45 124.66C116.746 134.529 122.829 148.598 124.372 158.304C125.356 164.519 125.653 170.532 125.739 174.079C127.262 173.623 128.767 173.127 130.247 172.578C130.099 169.005 129.677 163.193 128.493 157.348C126.585 147.946 119.396 133.923 122.458 124.279" fill="#461F16"/>
<path d="M116.441 125.042C117.871 118.862 118.636 115.481 118.906 111.406C119.075 108.817 119.128 105.574 119.194 101.229C119.382 87.2314 122.316 66.0452 122.918 54.8171C122.996 53.4013 123.069 52.0367 123.148 50.7602C123.641 42.7358 124.536 35.2057 124.958 31.9008C123.787 31.5643 122.605 31.2566 121.412 30.9766C120.879 34.1764 119.708 41.7946 119.127 50.1634C119.04 51.428 118.958 52.807 118.874 54.2675C118.233 65.6074 115.784 86.9251 115.642 101.256C115.59 105.553 115.565 108.884 115.441 111.549C115.255 115.488 114.607 119.243 113.433 125.425C111.473 135.755 115.318 149.901 116.129 160.215C116.629 166.638 116.71 172.576 116.699 176.17C118.222 175.916 119.728 175.613 121.218 175.268C121.183 171.716 120.999 165.669 120.249 159.26C119.073 149.251 114.105 135.141 116.441 125.042" fill="#461F16"/>
<path d="M112.007 161.169C111.563 150.553 108.849 136.367 110.425 125.804C111.347 119.626 111.869 115.491 111.975 111.69C112.053 108.95 112.054 105.529 112.088 101.279C112.186 86.6173 114.15 65.1694 114.829 53.7166C114.92 52.21 115.009 50.8152 115.107 49.565C115.767 41.0109 117.184 33.4335 117.84 30.2337C116.644 30.0155 115.439 29.8274 114.225 29.6671C113.437 32.9575 111.828 40.3812 111.085 48.9682C110.983 50.2039 110.883 51.6158 110.786 53.1644C110.067 64.733 108.588 86.3083 108.536 101.305C108.517 105.51 108.535 109.017 108.511 111.832C108.478 115.498 108.092 120.008 107.416 126.186C106.236 136.983 107.807 151.205 107.886 162.123C107.925 168.09 107.819 173.443 107.712 177.108C109.217 177.043 110.712 176.943 112.192 176.79C112.25 173.145 112.266 167.45 112.007 161.169" fill="#461F16"/>
<path d="M104.409 126.567C104.844 120.393 105.085 115.504 105.046 111.974C105.016 109.084 104.979 105.488 104.985 101.332C104.99 86.0024 105.984 64.2969 106.741 52.614C106.845 51.022 106.953 49.5943 107.066 48.3717C107.857 39.8964 109.603 32.7173 110.545 29.277C109.298 29.1758 108.5 29.0838 107.237 29.0444C106.139 32.6582 104.321 39.5323 103.499 47.7525C102.282 59.9389 101.095 96.2761 101.581 112.117C101.711 116.319 101.245 123.325 100.938 131.435C100.347 147.002 99.5211 166.487 98.8835 176.958C100.335 177.065 101.797 177.135 103.27 177.159C103.431 173.542 103.623 168.605 103.765 163.079C104.053 151.856 103.632 137.598 104.409 126.567" fill="#461F16"/>
<path d="M72.9983 89.4521C74.4181 86.6493 76.1468 82.6674 77.8321 86.6901C79.5174 90.7115 78.563 92.5387 78.1568 97.3318C78.0056 99.1131 77.2195 104.545 75.801 101.637C74.1762 98.3059 71.5798 92.2535 72.9983 89.4521V89.4521ZM73.394 104.379C73.8514 106.593 74.9071 114.148 77.2629 113.661C79.2138 113.742 79.6594 108.602 79.7002 108.346C80.6756 102.206 82.7395 85.4833 79.7067 80.3524C76.1454 74.3828 73.3309 84.1134 71.1 88.1335C70.9488 88.4043 70.3677 89.239 70.1206 90.4577C69.8064 92.0102 69.9458 93.5169 70.7832 95.7386C71.6916 98.1483 72.4435 99.7783 73.394 104.379Z" fill="#461F16"/>
<path d="M67.7257 90.1981C68.0951 88.1894 69.1231 86.9496 69.2007 86.8155C72.248 81.5703 76.1011 65.4046 81.5357 73.3264C86.1026 80.0086 82.498 113.402 80.4972 119.737C80.4577 119.861 79.0248 123.859 76.6546 123.288C74.258 122.712 74.12 119.123 72.6621 113C72.4938 112.295 72.3386 111.595 72.1927 110.898C71.12 105.775 70.6349 101.257 69.1547 97.9583C67.585 94.4654 67.3274 92.3764 67.7257 90.1981V90.1981ZM71.4237 120.283C72.7646 128.569 73.7558 134.667 77.1015 136.165C82.544 138.602 83.1605 124.132 84.0242 117.818C86.4142 100.332 87.8484 72.3497 83.3656 66.2985C76.0538 56.4284 71.6091 79.3066 67.3024 85.4971C67.3024 85.4971 65.8182 87.1377 65.3318 89.9392C64.8441 92.7419 65.2096 95.4237 67.5246 100.176C69.8396 104.928 70.0828 111.996 71.4237 120.283" fill="#461F16"/>
<path d="M64.9716 115.52C64.8072 112.591 64.355 107.895 63.8739 103.201C63.235 96.9853 62.7209 90.8119 63.0417 88.8058C63.4795 86.0754 64.8453 84.394 64.8716 84.1784C65.876 82.2301 67.0039 78.4678 68.6511 73.3579C70.4351 67.8221 78.044 46.3754 86.2643 31.2719C83.6364 31.9371 81.0663 32.7443 78.5581 33.6816C72.106 47.6112 66.5307 65.6411 65.1122 70.9113C63.7792 75.8608 62.6578 79.7271 61.7034 82.1224C61.6495 82.5522 60.4125 84.2769 60.0155 86.9351C59.6553 89.3474 60.0733 95.4813 60.6873 101.714C61.1526 106.445 61.5286 111.184 61.6403 114.366C61.9532 123.167 62.9418 134.367 63.7135 139.743C64.2748 143.649 68.1555 157.439 71.1108 169.245C72.6357 170.017 74.1831 170.751 75.7672 171.418C72.5293 158.427 68.216 143.583 67.6337 140.232C66.77 135.268 65.4488 123.983 64.9716 115.52" fill="#461F16"/>
<path d="M58.3089 113.21C58.2511 109.777 57.9514 104.995 57.5018 100.227C56.9115 93.9783 56.5921 87.8825 56.9878 85.0639C57.3519 82.4781 58.4523 80.7112 58.5351 80.0644C59.4422 77.2223 60.5398 73.2443 61.5731 68.4617C62.6169 63.6292 66.3084 49.3762 70.9226 37.0504C68.4314 38.319 66.0191 39.7165 63.7002 41.2493C60.837 51.3889 58.7191 61.8098 58.0342 66.0139C57.2836 70.6243 56.224 74.7192 55.3669 78.007C55.2551 78.8681 54.2968 80.681 53.9615 83.1932C53.5317 86.4179 53.7512 92.4756 54.3165 98.7397C54.749 103.543 54.9764 108.372 54.979 112.055C54.983 121.534 55.2498 132.573 55.8743 138.763C56.341 143.384 59.0806 154.108 61.4088 163.366C63.01 164.512 64.648 165.606 66.3399 166.624C63.6792 156.053 60.3177 143.611 59.7944 139.252C59.1003 133.469 58.4641 122.35 58.3089 113.21" fill="#461F16"/>
<path d="M51.6465 110.9C51.7031 106.964 51.5466 102.094 51.1312 97.2534C50.5896 90.9709 50.4752 84.9539 50.934 81.319C51.2416 78.8844 52.058 77.0255 52.1973 75.9502C53.0085 72.2141 54.0102 67.9968 54.494 63.5665C54.8621 60.2011 55.827 53.3981 57.2231 46.0376C55.3156 47.619 53.4949 49.2964 51.757 51.0567C51.3494 55.2345 51.0799 58.851 50.9564 61.1187C50.7224 65.3702 49.7903 69.7098 49.0292 73.8942C48.8609 75.1838 48.1904 77.0874 47.9078 79.4484C47.4227 83.4908 47.428 89.4683 47.9459 95.7666C48.3442 100.644 48.4323 105.558 48.3153 109.746C48.0327 119.899 47.5344 130.78 48.0353 137.783C48.3311 141.915 49.6168 148.262 51.0168 154.364C52.6969 156.115 54.4611 157.785 56.3042 159.365C54.3809 151.548 52.3459 142.869 51.9555 138.272C51.3941 131.676 51.5059 120.715 51.6465 110.9" fill="#461F16"/>
<path d="M44.9856 108.592C45.1631 104.153 45.1421 99.1943 44.7608 94.2829C44.2678 87.9662 44.3743 82.0307 44.8804 77.5794C45.1407 75.2933 45.6639 73.3438 45.8611 71.8385C46.5736 67.2085 47.4216 62.748 47.4176 58.6714C47.4163 57.8682 47.4202 56.8915 47.4294 55.8306C46.1424 57.3819 44.9317 58.9948 43.7722 60.6486C43.5593 63.4632 43.1215 66.5039 42.6916 69.7825C42.4681 71.5021 42.0908 73.4975 41.8542 75.7074C41.331 80.5675 41.1062 86.4636 41.5742 92.7947C41.941 97.7456 41.9015 102.746 41.6531 107.438C41.1114 118.268 39.8061 128.991 40.1965 136.807C40.253 137.956 40.3634 139.187 40.4988 140.449C42.054 143.105 43.763 145.657 45.6258 148.09C44.8804 144.166 44.2928 140.336 44.1153 137.296C43.6578 129.888 44.5623 119.084 44.9856 108.592" fill="#461F16"/>
<path d="M37.3357 103.845C37.4395 99.0871 37.4684 94.2454 37.3186 89.5101C37.1279 83.4761 37.3199 77.7905 37.6893 72.7726C37.7471 72.0246 37.8181 71.316 37.8878 70.6035C35.929 74.6065 34.3344 78.8159 33.1184 83.1844C32.8647 95.99 32.9909 110.171 33.7704 125.281C34.713 128.287 35.8554 131.203 37.1569 134.031C37.1214 133.548 37.0898 133.078 37.0662 132.627C36.589 123.814 37.1017 113.733 37.3357 103.845" fill="#461F16"/>
<path d="M96.2105 159.362C97.1899 144.081 98.5242 120.148 98.3612 110.546C98.0799 96.5254 98.8963 66.0842 99.8967 55.0941C100.75 45.7222 102.427 36.1979 104.667 29.0149C104.604 29.0149 104.543 29.0096 104.478 29.0096C103.789 29.0096 101.995 28.9886 101.309 29.0083C100.269 32.6235 99.4537 36.85 98.6136 40.8175C97.6671 45.2832 96.4656 53.9452 95.8096 62.2285C95.034 72.025 94.8788 96.7015 94.9169 108.898C94.959 121.951 92.2851 159.247 92.0656 161.366C91.6475 165.381 90.9784 173.853 90.5327 175.934C91.7829 176.155 93.7206 176.438 94.9919 176.598C95.289 173.853 95.7162 167.075 96.2105 159.362" fill="#461F16"/>
<path d="M92.6256 69.3107C94.2149 44.416 98.9305 35.1755 96.4038 33.6151C91.8592 30.8084 87.1805 39.0024 77.9257 56.3184C77.2486 57.5857 76.7017 58.753 76.0431 60.391C75.7631 61.0864 76.8319 61.1956 77.0028 60.8604C80.7363 53.5314 85.9986 46.1736 90.0871 50.1871C92.013 52.0789 90.4065 62.7166 89.9727 66.8694C89.6243 70.2099 89.4337 72.2357 89.2707 76.6081C88.9933 84.0225 88.716 96.9227 88.3466 105.474C87.9049 115.739 84.9706 142.436 84.7708 144.802C84.6038 146.795 83.1604 152.769 80.2749 153.326C79.5111 153.388 75.5252 152.679 73.2917 142.193C71.2764 132.738 69.1309 118.514 68.0661 111.131C67.6375 108.16 67.3825 106.297 67.3825 106.297C67.3825 106.297 66.6765 102.581 65.8589 102.804C65.3593 102.941 65.7011 104.984 66.4162 111.273C66.5753 112.68 66.7449 114.156 66.9197 115.66C67.6138 121.643 68.3921 128.078 69.0073 132.455C70.0472 139.842 72.8328 150.757 75.186 157.576C76.9397 163.56 79.7569 169.021 82.0062 170.471C85.879 172.968 88.0179 163.086 88.248 158.474C88.4346 154.708 91.3741 118.704 91.5674 107.047C91.7383 96.6729 92.0761 77.9148 92.6256 69.3107Z" fill="#461F16"/>
</svg>
