<?xml version="1.0" standalone="no"?>
<!DOCTYPE svg PUBLIC "-//W3C//DTD SVG 1.1//EN" "http://www.w3.org/Graphics/SVG/1.1/DTD/svg11.dtd">
<svg width="100%" height="100%" viewBox="0 0 40 40" version="1.1" xmlns="http://www.w3.org/2000/svg" xmlns:xlink="http://www.w3.org/1999/xlink" xml:space="preserve" style="fill-rule:evenodd;clip-rule:evenodd;stroke-linecap:round;stroke-miterlimit:1.41421;">
    <path d="M34,16L30,12L30,9L10,9L10,31L30,31L30,18" style="fill:none;stroke-width:2px;stroke:black;"/>
    <g transform="matrix(-3.82857e-16,1,-1,-3.82857e-16,51,-9)">
        <path d="M32,21L30,21C30,21 30,25.067 30,27.001C30,27.553 30.447,28 30.999,28C30.999,28 31,28 31,28C31.265,28 31.52,27.895 31.707,27.707C31.895,27.52 32,27.265 32,27C32,25.066 32,21 32,21Z" style="fill:black;"/>
    </g>
    <g transform="matrix(-1,7.65714e-16,-7.65714e-16,-1,38,60)">
        <path d="M21,29L19,29C19,29 19,35.469 19,38.001C19,38.266 19.105,38.52 19.293,38.707C19.48,38.895 19.734,39 19.999,39C19.999,39 20,39 20,39C20.552,39 21,38.552 21,38C21,35.467 21,29 21,29Z" style="fill:black;"/>
    </g>
</svg>
